<?xml version="1.0" encoding="UTF-8" standalone="no"?>
<!-- Created with Inkscape (http://www.inkscape.org/) -->

<svg
   version="1.1"
   id="svg62"
   width="485"
   height="120"
   viewBox="0 0 485 120"
   xmlns="http://www.w3.org/2000/svg"
   xmlns:svg="http://www.w3.org/2000/svg">
  <defs
     id="defs66" />
  <g
     id="g68"
     style="display:inline">
    <g
       id="g122792"
       style="display:inline">
      <g
         id="g119714"
         transform="matrix(-1,0,0,1,491.36536,-32)"
         style="display:inline;fill:#fee998;fill-opacity:1;stroke:#000000;stroke-opacity:1">
        <rect
           style="display:inline;fill:#fee998;fill-opacity:1;fill-rule:evenodd;stroke:#000000;stroke-width:1.03254;stroke-linecap:butt;stroke-linejoin:miter;stroke-dasharray:none;stroke-opacity:1"
           id="rect119571"
           width="29.77244"
           height="29.77244"
           x="96.820488"
           y="34.556053" />
        <rect
           style="fill:#b5eb9d;fill-opacity:1;fill-rule:evenodd;stroke:#000000;stroke-width:1.03254;stroke-linecap:butt;stroke-linejoin:miter;stroke-dasharray:none;stroke-opacity:1"
           id="rect119571-2"
           width="29.77244"
           height="29.77244"
           x="126.59293"
           y="34.556053" />
        <rect
           style="fill:#acd7fe;fill-opacity:1;fill-rule:evenodd;stroke:#000000;stroke-width:1.03254;stroke-linecap:butt;stroke-linejoin:miter;stroke-dasharray:none;stroke-opacity:1"
           id="rect119571-7"
           width="29.77244"
           height="29.77244"
           x="156.36537"
           y="34.556053" />
        <rect
           style="fill:#f9aeae;fill-opacity:1;fill-rule:evenodd;stroke:#000000;stroke-width:1.03254;stroke-linecap:butt;stroke-linejoin:miter;stroke-dasharray:none;stroke-opacity:1"
           id="rect119571-0"
           width="29.77244"
           height="29.77244"
           x="186.1378"
           y="34.556053" />
        <rect
           style="fill:none;fill-opacity:1;fill-rule:evenodd;stroke:#000000;stroke-width:1.03254;stroke-linecap:butt;stroke-linejoin:miter;stroke-dasharray:none;stroke-opacity:1"
           id="rect119571-9"
           width="29.77244"
           height="29.77244"
           x="215.91025"
           y="34.556053" />
        <rect
           style="fill:none;fill-opacity:1;fill-rule:evenodd;stroke:#000000;stroke-width:1.03254;stroke-linecap:butt;stroke-linejoin:miter;stroke-dasharray:none;stroke-opacity:1"
           id="rect119571-3"
           width="29.77244"
           height="29.77244"
           x="245.68269"
           y="34.556053" />
        <rect
           style="fill:#f9aeae;fill-opacity:1;fill-rule:evenodd;stroke:#000000;stroke-width:1.03254;stroke-linecap:butt;stroke-linejoin:miter;stroke-dasharray:none;stroke-opacity:1"
           id="rect119571-6"
           width="29.77244"
           height="29.77244"
           x="275.45511"
           y="34.556053" />
        <rect
           style="fill:#acd7fe;fill-opacity:1;fill-rule:evenodd;stroke:#000000;stroke-width:1.03254;stroke-linecap:butt;stroke-linejoin:miter;stroke-dasharray:none;stroke-opacity:1"
           id="rect119571-06"
           width="29.77244"
           height="29.77244"
           x="305.22757"
           y="34.556053" />
        <rect
           style="fill:#b5eb9d;fill-opacity:1;fill-rule:evenodd;stroke:#000000;stroke-width:1.03254;stroke-linecap:butt;stroke-linejoin:miter;stroke-dasharray:none;stroke-opacity:1"
           id="rect119571-26"
           width="29.77244"
           height="29.77244"
           x="335"
           y="34.556053" />
        <rect
           style="display:inline;fill:#fee998;fill-opacity:1;fill-rule:evenodd;stroke:#000000;stroke-width:1.03254;stroke-linecap:butt;stroke-linejoin:miter;stroke-dasharray:none;stroke-opacity:1"
           id="rect119571-1"
           width="29.77244"
           height="29.77244"
           x="364.77243"
           y="34.556053" />
      </g>
      <path
         style="fill:none;fill-rule:evenodd;stroke:#000000;stroke-width:1.5;stroke-linecap:butt;stroke-linejoin:miter;stroke-dasharray:none;stroke-opacity:1"
         d="M 36.905998,55.189116 109.78802,25.045367"
         id="path122757" />
      <path
         style="fill:none;fill-rule:evenodd;stroke:#000000;stroke-width:1.5;stroke-linecap:butt;stroke-linejoin:miter;stroke-dasharray:none;stroke-opacity:1"
         d="m 139.26777,25.493854 -38.3563,29.619543"
         id="path122759" />
      <path
         style="fill:none;fill-rule:evenodd;stroke:#000000;stroke-width:1.5;stroke-linecap:butt;stroke-linejoin:miter;stroke-dasharray:none;stroke-opacity:1"
         d="m 160.45149,56.023961 8.66686,-30.757263"
         id="path122761" />
      <path
         style="fill:none;fill-rule:evenodd;stroke:#000000;stroke-width:1.5;stroke-linecap:butt;stroke-linejoin:miter;stroke-dasharray:none;stroke-opacity:1"
         d="m 203.02473,25.833616 17.68514,30.530108"
         id="path122763" />
      <path
         style="fill:none;fill-rule:evenodd;stroke:#000000;stroke-width:1.5;stroke-linecap:butt;stroke-linejoin:miter;stroke-dasharray:none;stroke-opacity:1"
         d="M 290.39187,27.04578 267.96448,89.508368"
         id="path122765" />
      <path
         style="fill:none;fill-rule:evenodd;stroke:#000000;stroke-width:1.5;stroke-linecap:butt;stroke-linejoin:miter;stroke-dasharray:none;stroke-opacity:1"
         d="m 320.34628,27.031949 -2.67835,63.010464"
         id="path122767" />
      <path
         style="fill:none;fill-rule:evenodd;stroke:#000000;stroke-width:1.5;stroke-linecap:butt;stroke-linejoin:miter;stroke-dasharray:none;stroke-opacity:1"
         d="m 350.356,27.194505 24.11838,63.374476"
         id="path122769" />
      <path
         style="fill:none;fill-rule:evenodd;stroke:#000000;stroke-width:1.5;stroke-linecap:butt;stroke-linejoin:miter;stroke-dasharray:none;stroke-opacity:1"
         d="m 381.73517,26.906916 53.97549,62.856552"
         id="path122771" />
    </g>
    <text
       xml:space="preserve"
       style="font-style:normal;font-variant:normal;font-weight:normal;font-stretch:normal;font-size:8px;line-height:125%;font-family:sans-serif;-inkscape-font-specification:sans-serif;letter-spacing:0px;word-spacing:0px;display:inline;fill:#000000;fill-opacity:1;stroke:none;stroke-width:1px;stroke-linecap:butt;stroke-linejoin:miter;stroke-opacity:1"
       x="7.070951"
       y="69.787064"
       id="text122821"><tspan
         id="tspan122819"
         x="7.070951"
         y="69.787064">Kleiner Finger</tspan></text>
    <text
       xml:space="preserve"
       style="font-style:normal;font-variant:normal;font-weight:normal;font-stretch:normal;font-size:8px;line-height:125%;font-family:sans-serif;-inkscape-font-specification:sans-serif;letter-spacing:0px;word-spacing:0px;display:inline;fill:#000000;fill-opacity:1;stroke:none;stroke-width:1px;stroke-linecap:butt;stroke-linejoin:miter;stroke-opacity:1"
       x="133.46536"
       y="69.787064"
       id="text122821-93"><tspan
         id="tspan122819-1"
         x="133.46536"
         y="69.787064">Mittelfinger</tspan></text>
    <text
       xml:space="preserve"
       style="font-style:normal;font-variant:normal;font-weight:normal;font-stretch:normal;font-size:8px;line-height:125%;font-family:sans-serif;-inkscape-font-specification:sans-serif;letter-spacing:0px;word-spacing:0px;display:inline;fill:#000000;fill-opacity:1;stroke:none;stroke-width:1px;stroke-linecap:butt;stroke-linejoin:miter;stroke-opacity:1"
       x="204.1826"
       y="69.787064"
       id="text122821-94"><tspan
         id="tspan122819-78"
         x="204.1826"
         y="69.787064">Zeigefinger</tspan></text>
    <text
       xml:space="preserve"
       style="font-style:normal;font-variant:normal;font-weight:normal;font-stretch:normal;font-size:8px;line-height:125%;font-family:sans-serif;-inkscape-font-specification:sans-serif;letter-spacing:0px;word-spacing:0px;display:inline;fill:#000000;fill-opacity:1;stroke:none;stroke-width:1px;stroke-linecap:butt;stroke-linejoin:miter;stroke-opacity:1"
       x="76.981255"
       y="69.787064"
       id="text122821-9"><tspan
         id="tspan122819-7"
         x="76.981255"
         y="69.787064">Ringfinger</tspan></text>
    <text
       xml:space="preserve"
       style="font-style:normal;font-variant:normal;font-weight:normal;font-stretch:normal;font-size:8px;line-height:125%;font-family:sans-serif;-inkscape-font-specification:sans-serif;letter-spacing:0px;word-spacing:0px;display:inline;fill:#000000;fill-opacity:1;stroke:none;stroke-width:1px;stroke-linecap:butt;stroke-linejoin:miter;stroke-opacity:1"
       x="415.28754"
       y="100.18295"
       id="text122821-4"><tspan
         id="tspan122819-5"
         x="415.28754"
         y="100.18295">Kleiner Finger</tspan></text>
    <text
       xml:space="preserve"
       style="font-style:normal;font-variant:normal;font-weight:normal;font-stretch:normal;font-size:8px;line-height:125%;font-family:sans-serif;-inkscape-font-specification:sans-serif;letter-spacing:0px;word-spacing:0px;display:inline;fill:#000000;fill-opacity:1;stroke:none;stroke-width:1px;stroke-linecap:butt;stroke-linejoin:miter;stroke-opacity:1"
       x="291.29623"
       y="100.18295"
       id="text122821-93-0"><tspan
         id="tspan122819-1-3"
         x="291.29623"
         y="100.18295">Mittelfinger</tspan></text>
    <text
       xml:space="preserve"
       style="font-style:normal;font-variant:normal;font-weight:normal;font-stretch:normal;font-size:8px;line-height:125%;font-family:sans-serif;-inkscape-font-specification:sans-serif;letter-spacing:0px;word-spacing:0px;display:inline;fill:#000000;fill-opacity:1;stroke:none;stroke-width:1px;stroke-linecap:butt;stroke-linejoin:miter;stroke-opacity:1"
       x="241.89084"
       y="100.18295"
       id="text122821-94-6"><tspan
         id="tspan122819-78-1"
         x="241.89084"
         y="100.18295">Zeigefinger</tspan></text>
    <text
       xml:space="preserve"
       style="font-style:normal;font-variant:normal;font-weight:normal;font-stretch:normal;font-size:8px;line-height:125%;font-family:sans-serif;-inkscape-font-specification:sans-serif;letter-spacing:0px;word-spacing:0px;display:inline;fill:#000000;fill-opacity:1;stroke:none;stroke-width:1px;stroke-linecap:butt;stroke-linejoin:miter;stroke-opacity:1"
       x="354.41272"
       y="100.18295"
       id="text122821-9-0"><tspan
         id="tspan122819-7-6"
         x="354.41272"
         y="100.18295">Ringfinger</tspan></text>
    <text
       xml:space="preserve"
       style="font-style:normal;font-weight:normal;font-size:10.6667px;line-height:125%;font-family:Sans;letter-spacing:0px;word-spacing:0px;fill:#000000;fill-opacity:1;stroke:none;stroke-width:1px;stroke-linecap:butt;stroke-linejoin:miter;stroke-opacity:1"
       x="100.29433"
       y="85.789108"
       id="text123142"><tspan
         id="tspan123140"
         x="100.29433"
         y="85.789108"
         style="font-style:normal;font-variant:normal;font-weight:bold;font-stretch:normal;font-size:10.6667px;font-family:sans-serif;-inkscape-font-specification:'sans-serif Bold'">Linke Hand</tspan></text>
    <text
       xml:space="preserve"
       style="font-style:normal;font-weight:normal;font-size:10.6667px;line-height:125%;font-family:Sans;letter-spacing:0px;word-spacing:0px;display:inline;fill:#000000;fill-opacity:1;stroke:none;stroke-width:1px;stroke-linecap:butt;stroke-linejoin:miter;stroke-opacity:1"
       x="314.82217"
       y="114.79359"
       id="text123142-3"><tspan
         id="tspan123140-2"
         x="314.82217"
         y="114.79359"
         style="font-style:normal;font-variant:normal;font-weight:bold;font-stretch:normal;font-size:10.6667px;font-family:sans-serif;-inkscape-font-specification:'sans-serif Bold'">Rechte Hand</tspan></text>
    <text
       xml:space="preserve"
       style="font-style:normal;font-variant:normal;font-weight:normal;font-stretch:normal;font-size:16px;line-height:125%;font-family:sans-serif;-inkscape-font-specification:sans-serif;letter-spacing:0px;word-spacing:0px;fill:#000000;fill-opacity:1;stroke:none;stroke-width:1px;stroke-linecap:butt;stroke-linejoin:miter;stroke-opacity:1"
       x="105.75745"
       y="22.228247"
       id="text123269"><tspan
         id="tspan123267"
         x="105.75745"
         y="22.228247">A</tspan></text>
    <text
       xml:space="preserve"
       style="font-style:normal;font-variant:normal;font-weight:normal;font-stretch:normal;font-size:16px;line-height:125%;font-family:sans-serif;-inkscape-font-specification:sans-serif;letter-spacing:0px;word-spacing:0px;display:inline;fill:#000000;fill-opacity:1;stroke:none;stroke-width:1px;stroke-linecap:butt;stroke-linejoin:miter;stroke-opacity:1"
       x="135.85222"
       y="22.439184"
       id="text123269-0"><tspan
         id="tspan123267-6"
         x="135.85222"
         y="22.439184">S</tspan></text>
    <text
       xml:space="preserve"
       style="font-style:normal;font-variant:normal;font-weight:normal;font-stretch:normal;font-size:16px;line-height:125%;font-family:sans-serif;-inkscape-font-specification:sans-serif;letter-spacing:0px;word-spacing:0px;display:inline;fill:#000000;fill-opacity:1;stroke:none;stroke-width:1px;stroke-linecap:butt;stroke-linejoin:miter;stroke-opacity:1"
       x="165.17665"
       y="22.228247"
       id="text123269-1"><tspan
         id="tspan123267-5"
         x="165.17665"
         y="22.228247">D</tspan></text>
    <text
       xml:space="preserve"
       style="font-style:normal;font-variant:normal;font-weight:normal;font-stretch:normal;font-size:16px;line-height:125%;font-family:sans-serif;-inkscape-font-specification:sans-serif;letter-spacing:0px;word-spacing:0px;display:inline;fill:#000000;fill-opacity:1;stroke:none;stroke-width:1px;stroke-linecap:butt;stroke-linejoin:miter;stroke-opacity:1"
       x="195.01003"
       y="22.228247"
       id="text123269-5"><tspan
         id="tspan123267-4"
         x="195.01003"
         y="22.228247">F</tspan></text>
    <text
       xml:space="preserve"
       style="font-style:normal;font-variant:normal;font-weight:normal;font-stretch:normal;font-size:16px;line-height:125%;font-family:sans-serif;-inkscape-font-specification:sans-serif;letter-spacing:0px;word-spacing:0px;display:inline;fill:#000000;fill-opacity:1;stroke:none;stroke-width:1px;stroke-linecap:butt;stroke-linejoin:miter;stroke-opacity:1"
       x="224.81958"
       y="22.439184"
       id="text123269-7"><tspan
         id="tspan123267-65"
         x="224.81958"
         y="22.439184">G</tspan></text>
    <text
       xml:space="preserve"
       style="font-style:normal;font-variant:normal;font-weight:normal;font-stretch:normal;font-size:16px;line-height:125%;font-family:sans-serif;-inkscape-font-specification:sans-serif;letter-spacing:0px;word-spacing:0px;display:inline;fill:#000000;fill-opacity:1;stroke:none;stroke-width:1px;stroke-linecap:butt;stroke-linejoin:miter;stroke-opacity:1"
       x="253.64699"
       y="22.228247"
       id="text123269-6"><tspan
         id="tspan123267-9"
         x="253.64699"
         y="22.228247">H</tspan></text>
    <text
       xml:space="preserve"
       style="font-style:normal;font-variant:normal;font-weight:normal;font-stretch:normal;font-size:16px;line-height:125%;font-family:sans-serif;-inkscape-font-specification:sans-serif;letter-spacing:0px;word-spacing:0px;display:inline;fill:#000000;fill-opacity:1;stroke:none;stroke-width:1px;stroke-linecap:butt;stroke-linejoin:miter;stroke-opacity:1"
       x="288.43869"
       y="22.228247"
       id="text123269-3"><tspan
         id="tspan123267-7"
         x="288.43869"
         y="22.228247">J</tspan></text>
    <text
       xml:space="preserve"
       style="font-style:normal;font-variant:normal;font-weight:normal;font-stretch:normal;font-size:16px;line-height:125%;font-family:sans-serif;-inkscape-font-specification:sans-serif;letter-spacing:0px;word-spacing:0px;display:inline;fill:#000000;fill-opacity:1;stroke:none;stroke-width:1px;stroke-linecap:butt;stroke-linejoin:miter;stroke-opacity:1"
       x="314.28397"
       y="22.228247"
       id="text123269-4"><tspan
         id="tspan123267-52"
         x="314.28397"
         y="22.228247">K</tspan></text>
    <text
       xml:space="preserve"
       style="font-style:normal;font-variant:normal;font-weight:normal;font-stretch:normal;font-size:16px;line-height:125%;font-family:sans-serif;-inkscape-font-specification:sans-serif;letter-spacing:0px;word-spacing:0px;display:inline;fill:#000000;fill-opacity:1;stroke:none;stroke-width:1px;stroke-linecap:butt;stroke-linejoin:miter;stroke-opacity:1"
       x="345.11136"
       y="22.228247"
       id="text123269-54"><tspan
         id="tspan123267-74"
         x="345.11136"
         y="22.228247">L</tspan></text>
    <text
       xml:space="preserve"
       style="font-style:normal;font-variant:normal;font-weight:normal;font-stretch:normal;font-size:16px;line-height:125%;font-family:sans-serif;-inkscape-font-specification:sans-serif;letter-spacing:0px;word-spacing:0px;display:inline;fill:#000000;fill-opacity:1;stroke:none;stroke-width:1px;stroke-linecap:butt;stroke-linejoin:miter;stroke-opacity:1"
       x="374.92758"
       y="22.001684"
       id="text123269-54-4"><tspan
         id="tspan123267-74-3"
         x="374.92758"
         y="22.001684">Ö</tspan></text>
  </g>
</svg>
